{
   "mt_association" : {
      "cols" : [
         "association_author_id",
         "association_blog_id",
         "association_created_by",
         "association_created_on",
         "association_group_id",
         "association_id",
         "association_modified_by",
         "association_modified_on",
         "association_role_id",
         "association_type"
      ],
      "rows" : [
         [
            1,
            1,
            null,
            "__NOW__",
            0,
            1,
            null,
            "__NOW__",
            1,
            1
         ]
      ]
   },
   "mt_author" : {
      "cols" : [
         "author_api_password",
         "author_auth_type",
         "author_basename",
         "author_can_create_blog",
         "author_can_view_log",
         "author_created_by",
         "author_created_on",
         "author_date_format",
         "author_email",
         "author_entry_prefs",
         "author_external_id",
         "author_hint",
         "author_id",
         "author_is_superuser",
         "author_locked_out_time",
         "author_modified_by",
         "author_modified_on",
         "author_name",
         "author_nickname",
         "author_password",
         "author_preferred_language",
         "author_public_key",
         "author_remote_auth_token",
         "author_remote_auth_username",
         "author_status",
         "author_text_format",
         "author_type",
         "author_url",
         "author_userpic_asset_id"
      ],
      "rows" : [
         [
            "__API_PASS__",
            "MT",
            "authorce2f3",
            null,
            null,
            1,
            "__NOW__",
            "relative",
            "",
            null,
            null,
            null,
            1,
            null,
            0,
            null,
            "__NOW__",
            "Melody",
            "",
            "__AUTHOR_PASS__",
            "en_US",
            null,
            null,
            null,
            1,
            null,
            1,
            null,
            null
         ]
      ]
   },
   "mt_blog" : {
      "cols" : [
         "blog_allow_anon_comments",
         "blog_allow_comment_html",
         "blog_allow_commenter_regist",
         "blog_allow_comments_default",
         "blog_allow_pings",
         "blog_allow_pings_default",
         "blog_allow_reg_comments",
         "blog_allow_unreg_comments",
         "blog_archive_path",
         "blog_archive_tmpl_category",
         "blog_archive_tmpl_daily",
         "blog_archive_tmpl_individual",
         "blog_archive_tmpl_monthly",
         "blog_archive_tmpl_weekly",
         "blog_archive_type",
         "blog_archive_type_preferred",
         "blog_archive_url",
         "blog_autodiscover_links",
         "blog_autolink_urls",
         "blog_basename_limit",
         "blog_cc_license",
         "blog_children_modified_on",
         "blog_class",
         "blog_content_css",
         "blog_convert_paras",
         "blog_convert_paras_comments",
         "blog_created_by",
         "blog_created_on",
         "blog_custom_dynamic_templates",
         "blog_date_language",
         "blog_days_on_index",
         "blog_description",
         "blog_email_new_comments",
         "blog_email_new_pings",
         "blog_entries_on_index",
         "blog_file_extension",
         "blog_google_api_key",
         "blog_id",
         "blog_internal_autodiscovery",
         "blog_is_dynamic",
         "blog_junk_folder_expiry",
         "blog_junk_score_threshold",
         "blog_language",
         "blog_manual_approve_commenters",
         "blog_moderate_pings",
         "blog_moderate_unreg_comments",
         "blog_modified_by",
         "blog_modified_on",
         "blog_mt_update_key",
         "blog_name",
         "blog_old_style_archive_links",
         "blog_parent_id",
         "blog_ping_blogs",
         "blog_ping_google",
         "blog_ping_others",
         "blog_ping_technorati",
         "blog_ping_weblogs",
         "blog_remote_auth_token",
         "blog_require_comment_emails",
         "blog_sanitize_spec",
         "blog_server_offset",
         "blog_site_path",
         "blog_site_url",
         "blog_sort_order_comments",
         "blog_sort_order_posts",
         "blog_status_default",
         "blog_theme_id",
         "blog_use_comment_confirmation",
         "blog_use_revision",
         "blog_welcome_msg",
         "blog_words_in_excerpt"
      ],
      "rows" : [
         [
            null,
            1,
            1,
            1,
            1,
            1,
            1,
            0,
            null,
            null,
            null,
            null,
            null,
            null,
            "",
            "",
            null,
            null,
            1,
            100,
            null,
            "2010-12-31 12:00:00",
            "website",
            null,
            "richtext",
            "1",
            null,
            "__NOW__",
            "none",
            "en_US",
            0,
            null,
            1,
            1,
            10,
            "html",
            null,
            1,
            0,
            null,
            14,
            0,
            "en_US",
            null,
            1,
            2,
            null,
            "__NOW__",
            null,
            "First Website",
            null,
            null,
            0,
            0,
            null,
            0,
            0,
            null,
            0,
            "0",
            0,
            "",
            "/",
            "ascend",
            "descend",
            2,
            null,
            1,
            1,
            null,
            40
         ]
      ]
   },
   "mt_blog_meta" : {
      "cols" : [
         "blog_meta_blog_id",
         "blog_meta_type",
         "blog_meta_vblob",
         "blog_meta_vchar",
         "blog_meta_vchar_idx",
         "blog_meta_vclob",
         "blog_meta_vdatetime",
         "blog_meta_vdatetime_idx",
         "blog_meta_vfloat",
         "blog_meta_vfloat_idx",
         "blog_meta_vinteger",
         "blog_meta_vinteger_idx"
      ],
      "rows" : [
         [
            1,
            "commenter_authenticators",
            null,
            "MovableType",
            null,
            null,
            null,
            null,
            null,
            null,
            null,
            null
         ],
         [
            1,
            "follow_auth_links",
            null,
            null,
            null,
            null,
            null,
            null,
            null,
            null,
            1,
            null
         ],
         [
            1,
            "nofollow_urls",
            null,
            null,
            null,
            null,
            null,
            null,
            null,
            null,
            1,
            null
         ],
         [
            1,
            "page_layout",
            null,
            "layout-wtt",
            null,
            null,
            null,
            null,
            null,
            null,
            null,
            null
         ]
      ]
   },
   "mt_cd" : {
      "cols" : [
         "cd_author_id",
         "cd_authored_on",
         "cd_blog_id",
         "cd_content_type_id",
         "cd_created_by",
         "cd_created_on",
         "cd_ct_unique_id",
         "cd_current_revision",
         "cd_data",
         "cd_id",
         "cd_identifier",
         "cd_label",
         "cd_modified_by",
         "cd_modified_on",
         "cd_random",
         "cd_status",
         "cd_unique_id",
         "cd_unpublished_on",
         "cd_week_number"
      ],
      "rows" : [
         [
            1,
            "2017-05-30 16:36:00",
            1,
            1,
            null,
            "__NOW__",
            "6d8d075ccc7844ff54a1bb1b6260257c227feb9f",
            0,
            "SERG\u0000\u0000\u0000\u0000\u0000\u0000\u0000\u0002H\u0000\u0000\u0000\u0001\u0000\u0000\u0000\u00011A\u0000\u0000\u0000\u0003-\u0000\u0000\u0000\u00011-\u0000\u0000\u0000\u00012-\u0000\u0000\u0000\u00013",
            1,
            "ebf474d766b020f89ac96074825bb0d5974da8ca",
            null,
            null,
            "__NOW__",
            5,
            2,
            "ebf474d766b020f89ac96074825bb0d5974da8ca",
            null,
            201722
         ]
      ]
   },
   "mt_cf" : {
      "cols" : [
         "cf_blog_id",
         "cf_content_type_id",
         "cf_created_by",
         "cf_created_on",
         "cf_default",
         "cf_description",
         "cf_id",
         "cf_modified_by",
         "cf_modified_on",
         "cf_name",
         "cf_related_cat_set_id",
         "cf_related_content_type_id",
         "cf_required",
         "cf_type",
         "cf_unique_id"
      ],
      "rows" : [
         [
            1,
            1,
            null,
            "__NOW__",
            null,
            "This is a sample single_line_text field.",
            1,
            null,
            "__NOW__",
            "Sample Content Field",
            null,
            null,
            null,
            "tags",
            "407e9b0ce3f351f9ef8f28b5842d4e1711e87fda"
         ]
      ]
   },
   "mt_cf_idx" : {
      "cols" : [
         "cf_idx_content_data_id",
         "cf_idx_content_field_id",
         "cf_idx_content_type_id",
         "cf_idx_created_by",
         "cf_idx_created_on",
         "cf_idx_id",
         "cf_idx_modified_by",
         "cf_idx_modified_on",
         "cf_idx_value_blob",
         "cf_idx_value_datetime",
         "cf_idx_value_double",
         "cf_idx_value_float",
         "cf_idx_value_integer",
         "cf_idx_value_text",
         "cf_idx_value_varchar"
      ],
      "rows" : [
         [
            1,
            1,
            1,
            null,
            "__NOW__",
            1,
            null,
            "__NOW__",
            null,
            null,
            null,
            null,
            1,
            null,
            null
         ],
         [
            1,
            1,
            1,
            null,
            "__NOW__",
            2,
            null,
            "__NOW__",
            null,
            null,
            null,
            null,
            2,
            null,
            null
         ],
         [
            1,
            1,
            1,
            null,
            "__NOW__",
            3,
            null,
            "__NOW__",
            null,
            null,
            null,
            null,
            3,
            null,
            null
         ]
      ]
   },
   "mt_config" : {
      "cols" : [
         "config_data",
         "config_id"
      ],
      "rows" : [
         [
            "DataAPIDisableSite 0\nPluginAlias ContentType Information Widget=ContentInfoWidget\nPluginAlias Markdown=Markdown/Markdown.pl\nPluginAlias SmartyPants=Markdown/SmartyPants.pl\nPluginAlias SpamLookup - Keyword Filter=spamlookup/spamlookup_words.pl\nPluginAlias SpamLookup - Link=spamlookup/spamlookup_urls.pl\nPluginAlias SpamLookup - Lookups=spamlookup/spamlookup.pl\nPluginAlias Textile=Textile/textile2.pl\nPluginAlias WXR Importer=WXRImporter\nPluginAlias Widget Manager Upgrade Assistant=WidgetManager/WidgetManager.pl\nPluginSchemaVersion WidgetManager=1.1\nPluginSchemaVersion contenttypecolumn=0.01\nPluginSchemaVersion formattedtext=1.00\nPluginSchemaVersion tinymce=1\nPluginSwitch Awesome=1\nPluginSwitch BlockEditor=1\nPluginSwitch ContentInfoWidget=1\nPluginSwitch ContentTypeColumn=1\nPluginSwitch FormattedText=1\nPluginSwitch FormattedTextForTinyMCE=0\nPluginSwitch FormattedTextForTinyMCE5=1\nPluginSwitch GoogleAnalytics=1\nPluginSwitch IllegalObjectType=1\nPluginSwitch Markdown/Markdown.pl=1\nPluginSwitch Markdown/SmartyPants.pl=1\nPluginSwitch SortMethod=1\nPluginSwitch Textile/textile2.pl=1\nPluginSwitch TinyMCE=0\nPluginSwitch TinyMCE5=1\nPluginSwitch WXRImporter=1\nPluginSwitch WidgetManager/WidgetManager.pl=1\nPluginSwitch spamlookup/spamlookup.pl=1\nPluginSwitch spamlookup/spamlookup_urls.pl=1\nPluginSwitch spamlookup/spamlookup_words.pl=1\nSchemaVersion 7.0050\n",
            1
         ]
      ]
   },
   "mt_content_type" : {
      "cols" : [
         "content_type_blog_id",
         "content_type_created_by",
         "content_type_created_on",
         "content_type_data_label",
         "content_type_description",
         "content_type_fields",
         "content_type_id",
         "content_type_modified_by",
         "content_type_modified_on",
         "content_type_name",
         "content_type_unique_id",
         "content_type_user_disp_option",
         "content_type_version"
      ],
      "rows" : [
         [
            1,
            null,
            "__NOW__",
            null,
            "This is a sample.",
            "SERG\u0000\u0000\u0000\u0000\u0000\u0000\u0000\u0002A\u0000\u0000\u0000\u0001H\u0000\u0000\u0000\u0005\u0000\u0000\u0000\u0005order-\u0000\u0000\u0000\u00011\u0000\u0000\u0000\tunique_id-\u0000\u0000\u0000(407e9b0ce3f351f9ef8f28b5842d4e1711e87fda\u0000\u0000\u0000\u0004type-\u0000\u0000\u0000\u0004tags\u0000\u0000\u0000\u0002id-\u0000\u0000\u0000\u00011\u0000\u0000\u0000\u0007optionsH\u0000\u0000\u0000\u0002\u0000\u0000\u0000\bmultiple-\u0000\u0000\u0000\u00011\u0000\u0000\u0000\u0005label-\u0000\u0000\u0000\u0014Sample Content Field",
            1,
            null,
            "__NOW__",
            "Sample Content Type 0",
            "6d8d075ccc7844ff54a1bb1b6260257c227feb9f",
            null,
            null
         ]
      ]
   },
   "mt_objecttag" : {
      "cols" : [
         "objecttag_blog_id",
         "objecttag_cf_id",
         "objecttag_id",
         "objecttag_object_datasource",
         "objecttag_object_id",
         "objecttag_tag_id"
      ],
      "rows" : [
         [
            1,
            1,
            1,
            "content_data",
            1,
            1
         ],
         [
            1,
            1,
            2,
            "content_data",
            1,
            2
         ],
         [
            1,
            1,
            3,
            "content_data",
            1,
            3
         ]
      ]
   },
   "mt_permission" : {
      "cols" : [
         "permission_author_id",
         "permission_blog_id",
         "permission_blog_prefs",
         "permission_created_by",
         "permission_created_on",
         "permission_entry_prefs",
         "permission_id",
         "permission_modified_by",
         "permission_modified_on",
         "permission_page_prefs",
         "permission_permissions",
         "permission_restrictions",
         "permission_role_mask",
         "permission_template_prefs"
      ],
      "rows" : [
         [
            1,
            0,
            null,
            null,
            "__NOW__",
            null,
            1,
            null,
            "__NOW__",
            null,
            "'administer','create_site','edit_templates','manage_content_data','manage_content_types','manage_plugins','manage_users_groups','sign_in_cms','sign_in_data_api','view_log'",
            null,
            0,
            null
         ],
         [
            1,
            1,
            null,
            null,
            "__NOW__",
            null,
            2,
            null,
            "__NOW__",
            null,
            "'administer_blog','administer_site','administer_website','comment','create_post','create_site','edit_all_posts','edit_assets','edit_categories','edit_config','edit_notifications','edit_tags','edit_templates','manage_category_set','manage_content_data','manage_content_types','manage_feedback','manage_member_blogs','manage_pages','manage_themes','manage_users','publish_post','rebuild','send_notifications','set_publish_paths','upload','view_blog_log'",
            null,
            0,
            null
         ]
      ]
   },
   "mt_role" : {
      "cols" : [
         "role_created_by",
         "role_created_on",
         "role_description",
         "role_id",
         "role_is_system",
         "role_modified_by",
         "role_modified_on",
         "role_name",
         "role_permissions",
         "role_role_mask",
         "role_role_mask2",
         "role_role_mask3",
         "role_role_mask4"
      ],
      "rows" : [
         [
            null,
            "__NOW__",
            "Can administer the site.",
            1,
            0,
            null,
            "__NOW__",
            "Site Administrator",
            "'administer_site'",
            null,
            null,
            null,
            null
         ],
         [
            null,
            "__NOW__",
            "Can upload files, edit all entries(categories), pages(folders), tags and publish the site.",
            2,
            0,
            null,
            "__NOW__",
            "Editor",
            "'comment','create_post','edit_all_posts','edit_assets','edit_categories','edit_tags','manage_category_set','manage_content_data','manage_feedback','manage_pages','publish_post','rebuild','send_notifications','upload'",
            null,
            null,
            null,
            null
         ],
         [
            null,
            "__NOW__",
            "Can create entries, edit their own entries, upload files and publish.",
            3,
            0,
            null,
            "__NOW__",
            "Author",
            "'comment','create_post','publish_post','send_notifications','upload'",
            null,
            null,
            null,
            null
         ],
         [
            null,
            "__NOW__",
            "Can edit, manage, and publish blog templates and themes.",
            4,
            0,
            null,
            "__NOW__",
            "Designer",
            "'edit_assets','edit_templates','manage_themes','rebuild','upload'",
            144,
            null,
            null,
            null
         ],
         [
            null,
            "__NOW__",
            "Can manage pages, upload files and publish site/child site templates.",
            5,
            0,
            null,
            "__NOW__",
            "Webmaster",
            "'manage_pages','rebuild','upload'",
            null,
            null,
            null,
            null
         ],
         [
            null,
            "__NOW__",
            "Can create entries, edit their own entries, and comment.",
            6,
            0,
            null,
            "__NOW__",
            "Contributor",
            "'comment','create_post'",
            null,
            null,
            null,
            null
         ],
         [
            null,
            "__NOW__",
            "Can manage content types, content data and category sets.",
            7,
            0,
            null,
            "__NOW__",
            "Content Designer",
            "'manage_category_set','manage_content_data','manage_content_types'",
            null,
            null,
            null,
            null
         ]
      ]
   },
   "mt_tag" : {
      "cols" : [
         "tag_id",
         "tag_is_private",
         "tag_n8d_id",
         "tag_name"
      ],
      "rows" : [
         [
            1,
            0,
            0,
            "foo"
         ],
         [
            2,
            0,
            0,
            "bar"
         ],
         [
            3,
            0,
            0,
            "baz"
         ]
      ]
   },
   "mt_template" : {
      "cols" : [
         "template_blog_id",
         "template_build_dynamic",
         "template_build_interval",
         "template_build_type",
         "template_content_type_id",
         "template_created_by",
         "template_created_on",
         "template_current_revision",
         "template_id",
         "template_identifier",
         "template_linked_file",
         "template_linked_file_mtime",
         "template_linked_file_size",
         "template_modified_by",
         "template_modified_on",
         "template_name",
         "template_outfile",
         "template_rebuild_me",
         "template_text",
         "template_type"
      ],
      "rows" : [
         [
            0,
            0,
            0,
            1,
            null,
            null,
            "__NOW__",
            0,
            1,
            "footer-email",
            null,
            null,
            null,
            null,
            "__NOW__",
            "Mail Footer",
            null,
            1,
            "\n-- \nPowered by Movable Type <$mt:Version$>\n<$mt:Var name=\"portal_url\"$>\n",
            "custom"
         ],
         [
            0,
            0,
            0,
            1,
            null,
            null,
            "__NOW__",
            0,
            2,
            "lockout-ip",
            null,
            null,
            null,
            null,
            "__NOW__",
            "IP Address Lockout",
            null,
            1,
            "This email is to notify you that an IP address has been locked out.\n\nIP Address: <mt:var name=\"ip_address\"> \nRecovery: <mt:Date ts=\"$recovery_time\">\n\n<mt:include module=\"Mail Footer\">\n",
            "email"
         ],
         [
            0,
            0,
            0,
            1,
            null,
            null,
            "__NOW__",
            0,
            3,
            "lockout-user",
            null,
            null,
            null,
            null,
            "__NOW__",
            "User Lockout",
            null,
            1,
            "This email is to notify you that a Movable Type user account has been locked out.\n\nUsername: <mt:AuthorName> \nDisplay Name: <mt:AuthorDisplayName>\nEmail: <mt:AuthorEmail>\n\nIf you want to permit this user to participate again, click the link below.\n\n<mt:var name=\"recover_lockout_link\">\n\n<mt:include module=\"Mail Footer\">\n",
            "email"
         ],
         [
            0,
            0,
            0,
            1,
            null,
            null,
            "__NOW__",
            0,
            4,
            "notify-entry",
            null,
            null,
            null,
            null,
            "__NOW__",
            "Entry Notify",
            null,
            1,
            "A new <$mt:entryclasslabel$> entitled '<$mt:EntryTitle$>' has been published to <$mt:BlogName$>.\n\n<mt:If name=\"object_type\" eq=\"entry\">View entry:<mt:Else>View page:</mt:If> <<mt:SetVarBlock name=\"entry_status\"><$mt:EntryStatus$></mt:SetVarBlock><mt:If name=\"entry_status\" eq=\"Publish\"><$mt:EntryPermalink$><mt:Else><$mt:Var name=\"entry_editurl\"$></mt:If>>\n\n------------------------------------------------------------------------\n<$mt:EntryClassLabel lower_case=\"1\"$> Title: <$mt:EntryTitle$>\nPublish Date: <$mt:EntryDate mail=\"1\"$>\n<mt:If name=\"send_excerpt\">\n\n<$mt:EntryExcerpt wrap_text=\"72\"$>\n</mt:If>\n------------------------------------------------------------------------\n\n<mt:If name=\"message\">Message from Sender:\n<$mt:Var name=\"message\"$></mt:If>\n<mt:If name=\"send_body\">\n------------------------------------------------------------------------\n\n<$mt:EntryBody remove_html=\"1\" wrap_text=\"72\"$>\n\n------------------------------------------------------------------------</mt:If>\n\nYou are receiving this email either because you have elected to receive notifications about new content on <$mt:BlogName$>, or the author of the post thought you would be interested. If you no longer wish to receive these emails, please contact the following person:\n\n<mt:if name=\"entry_author\"><$mt:AuthorDisplayName$> <<$mt:AuthorEmail$>><mt:else><$mt:var name=\"from_address\"$></mt:if>\n",
            "email"
         ],
         [
            0,
            0,
            0,
            1,
            null,
            null,
            "__NOW__",
            0,
            5,
            "recover-password",
            null,
            null,
            null,
            null,
            "__NOW__",
            "Password Recovery",
            null,
            1,
            "A request was made to change your Movable Type password. To complete this process click on the link below to select a new password.\n\n<mt:var name=\"link_to_login\">\n\nIf you did not request this change, you can safely ignore this email.\n\n<mt:include module=\"Mail Footer\">\n",
            "email"
         ]
      ]
   },
   "mt_touch" : {
      "cols" : [
         "touch_blog_id",
         "touch_id",
         "touch_modified_on",
         "touch_object_type"
      ],
      "rows" : [
         [
            0,
            1,
            "__NOW__",
            "author"
         ]
      ]
   },
   "schema_version" : "WidgetManager 1.1; contenttypecolumn 0.01; core 7.0050; formattedtext 1.00; tinymce 1"
}
